Machine Learning - the basics in R
…
With gather from wide to long format

library(dplyr)
library(tidyr)
stocks <- tibble(
  time = as.Date('2009-01-01') + 0:9,
  X = rnorm(10, 0, 1),
  Y = rnorm(10, 0, 2),
  Z = rnorm(10, 0, 4)
)

gather(stocks, "stock", "price", -time)

## # A tibble: 30 x 3
##    time       stock   price
##    <date>     <chr>   <dbl>
##  1 2009-01-01 X     -0.708 
##  2 2009-01-02 X     -0.584 
##  3 2009-01-03 X     -1.04  
##  4 2009-01-04 X      0.0611
##  5 2009-01-05 X     -0.586 
##  6 2009-01-06 X     -0.446 
##  7 2009-01-07 X      0.209 
##  8 2009-01-08 X      0.0214
##  9 2009-01-09 X      0.162 
## 10 2009-01-10 X     -0.619 
## #  with 20 more rows
…
